uni,date,count
all,Jan 2004,42067
all,Jan 2005,41332
all,Jan 2006,42190
all,Jan 2007,42911
all,Jan 2008,44611
all,Jan 2009,48446
all,Jan 2010,52045
all,Jan 2011,52102
all,Jan 2012,49803
all,Jan 2013,49809
all,Jan 2014,52229
all,Jan 2015,55116
all,Jan 2016,63748
all,Jan 2017,75861
